<?xml version="1.0" encoding="UTF-8"?>
<svg width="320px" height="150px" viewBox="0 0 320 150" version="1.1" xmlns="http://www.w3.org/2000/svg" xmlns:xlink="http://www.w3.org/1999/xlink">
    <!-- Generator: Sketch 51.2 (57519) - http://www.bohemiancoding.com/sketch -->
    <title>Artboard1b</title>
    <desc>Created with Sketch.</desc>
    <defs></defs>
    <g id="Artboard1b" stroke="none" stroke-width="1" fill="none" fill-rule="evenodd">
        <g id="Group" transform="translate(2.000000, 0.000000)" fill="#FFFFFF">
            <rect id="Rectangle" fill-rule="nonzero" x="0" y="62" width="22" height="84"></rect>
            <rect id="Rectangle" fill-rule="nonzero" transform="translate(42.000000, 135.000000) rotate(90.000000) translate(-42.000000, -135.000000) " x="31" y="93" width="22" height="84"></rect>
            <rect id="Rectangle" fill-rule="nonzero" x="62" y="0" width="22" height="84"></rect>
            <rect id="Rectangle" fill-rule="nonzero" x="124" y="62" width="22" height="84"></rect>
            <rect id="Rectangle" fill-rule="nonzero" transform="translate(104.000000, 73.000000) rotate(90.000000) translate(-104.000000, -73.000000) " x="93" y="31" width="22" height="84"></rect>
            <rect id="Rectangle" fill-rule="nonzero" transform="translate(42.000000, 11.000000) rotate(90.000000) translate(-42.000000, -11.000000) " x="31" y="-31" width="22" height="84"></rect>
            <text id="pragma-code_" font-family="Deja Vu Sans" font-size="40" font-weight="300" line-spacing="50" letter-spacing="-1.745455">
                <tspan x="164" y="88">pragma</tspan>
                <tspan x="164" y="138">code_</tspan>
            </text>
        </g>
    </g>
</svg>
